<?xml version="1.0" encoding="UTF-8"?>
<svg width="297px" height="67px" viewBox="0 0 297 67" version="1.1" xmlns="http://www.w3.org/2000/svg" xmlns:xlink="http://www.w3.org/1999/xlink">
    <!-- Generator: Sketch 52.6 (67491) - http://www.bohemiancoding.com/sketch -->
    <title>Group Copy 5</title>
    <desc>Created with Sketch.</desc>
    <g id="Logo" stroke="none" stroke-width="1" fill="none" fill-rule="evenodd">
        <g id="02" transform="translate(-720.000000, -415.000000)">
            <g id="Group-Copy-5" transform="translate(720.000000, 415.000000)">
                <g id="Ready-Copy-3" fill="#007AFF">
                    <path d="M16.3084309,6.76244292e-12 C30.0042317,4.65911031e-12 43.7000326,2.55577769e-12 57.3958333,4.52445069e-13 C57.7295054,-5.57357751e-14 58,0.264669234 58,0.591155281 L58,11.1137193 C58,11.4402053 57.7295054,11.7048746 57.3958333,11.7048746 C44.5406309,11.7048746 31.6854285,11.7048746 18.8302262,11.7048746 C14.7722203,11.7048746 11.9625,14.8928757 11.9625,18.3279856 C11.9625,27.4175487 11.9625,33.133164 11.9625,35.4748318 C11.9625,36.1369747 12.5241587,36.6516274 13.1642682,36.6516274 C21.6650677,36.6516274 30.1658672,36.6516274 38.6666667,36.6516274 C39.0003387,36.6516274 39.2708333,36.9162966 39.2708333,37.2427827 L39.270833,47.7653467 C39.270833,48.0918327 39.0003386,48.3565019 38.6666667,48.356502 L0.604167295,48.3565217 C0.270495083,48.3565219 1.71151098e-07,48.0918527 7.952525e-14,47.7653665 C2.6580675e-14,47.7653663 -7.24999983e-19,47.7653662 0,47.7653661 C8.50665252e-11,35.4220016 1.27464207e-10,24.8421752 1.27193005e-10,16.0258867 C1.26935082e-10,7.64200013 6.6463379,6.76062098e-12 16.3084309,6.76244292e-12 Z" id="Rectangle-Copy-9"></path>
                    <path d="M16.3084309,18.6434783 C30.0042317,18.6434783 43.7000326,18.6434783 57.3958333,18.6434783 C57.7295054,18.6434783 58,18.9081475 58,19.2346335 L58,29.7571975 C58,30.0836836 57.7295054,30.3483528 57.3958333,30.3483528 C44.5406309,30.3483528 31.6854285,30.3483528 18.8302262,30.3483528 C14.7722203,30.3483528 11.9625,33.5363539 11.9625,36.9714639 C11.9625,46.0610269 11.9625,51.7766423 11.9625,54.11831 C11.9625,54.780453 12.5241587,55.2951057 13.1642682,55.2951057 C21.6650677,55.2951057 30.1658672,55.2951057 38.6666667,55.2951057 C39.0003387,55.2951057 39.2708333,55.5597749 39.2708333,55.886261 L39.270833,66.408825 C39.270833,66.7353109 39.0003386,66.9999801 38.6666667,66.9999803 L0.604167295,67 C0.270495083,67.0000001 1.71151098e-07,66.7353309 7.952525e-14,66.4088447 C2.6580675e-14,66.4088446 -7.24999983e-19,66.4088445 0,66.4088444 C8.50665252e-11,54.0654799 1.27464207e-10,43.4856535 1.27193005e-10,34.669365 C1.26935082e-10,26.2854784 6.6463379,18.6434783 16.3084309,18.6434783 Z" id="Rectangle-Copy-10" transform="translate(29.000000, 42.821739) rotate(180.000000) translate(-29.000000, -42.821739) "></path>
                </g>
                <path d="M118.87196,20.4291471 C118.557449,20.9126955 118.227217,21.2753514 117.881255,21.5171256 C117.535293,21.7588998 117.089743,21.8797851 116.54459,21.8797851 C116.06234,21.8797851 115.543405,21.7337154 114.987769,21.4415715 C114.432133,21.1494277 113.803121,20.82203 113.100713,20.4593687 C112.398305,20.0967074 111.596314,19.7693097 110.694716,19.4771659 C109.793118,19.185022 108.765731,19.0389523 107.612524,19.0389523 C105.620622,19.0389523 104.137201,19.4469402 103.162217,20.2629281 C102.187233,21.0789161 101.699748,22.1819944 101.699748,23.5721961 C101.699748,24.4587015 101.993288,25.1940871 102.580375,25.7783747 C103.167462,26.3626624 103.938002,26.8663511 104.892018,27.289456 C105.846035,27.7125609 106.936323,28.1004012 108.162916,28.4529886 C109.389509,28.805576 110.642292,29.1984532 111.921303,29.631632 C113.200314,30.0648108 114.453097,30.5735364 115.67969,31.157824 C116.906282,31.7421117 117.996571,32.487571 118.950587,33.3942243 C119.904604,34.3008776 120.675144,35.4039559 121.262231,36.7034923 C121.849318,38.0030287 122.142857,39.5695006 122.142857,41.402955 C122.142857,43.4378879 121.775933,45.3418313 121.042074,47.1148422 C120.308216,48.8878531 119.244136,50.4341774 117.849804,51.7538617 C116.455472,53.0735459 114.736172,54.1111446 112.691851,54.8666891 C110.64753,55.6222335 108.325425,56 105.725468,56 C104.299685,56 102.847715,55.8589672 101.369514,55.5768972 C99.8913122,55.2948273 98.4603088,54.8969132 97.0764607,54.383143 C95.6926126,53.8693729 94.3926536,53.2599095 93.1765446,52.5547347 C91.9604356,51.8495599 90.901598,51.0638055 90,50.197448 L93.1450937,45.4224312 C93.3967024,45.0799177 93.7269339,44.7928151 94.1357982,44.5611148 C94.5446624,44.3294146 94.9902129,44.2135662 95.472463,44.2135662 C96.1014848,44.2135662 96.735739,44.4049679 97.3752446,44.787777 C98.0147502,45.1705862 98.7381145,45.5936847 99.5453592,46.0570853 C100.352604,46.5204859 101.280397,46.9435844 102.328767,47.3263936 C103.377137,47.7092027 104.614195,47.9006044 106.039978,47.9006044 C107.968978,47.9006044 109.468124,47.4926166 110.537462,46.6766286 C111.606799,45.8606406 112.141459,44.5661606 112.141459,42.7931498 C112.141459,41.7656094 111.84792,40.9294861 111.260833,40.2847549 C110.673746,39.6400236 109.903206,39.1061136 108.949189,38.6830087 C107.995173,38.2599039 106.910126,37.8871742 105.694017,37.5648086 C104.477908,37.242443 103.230367,36.884824 101.951356,36.4919409 C100.672345,36.0990578 99.4248034,35.6155166 98.2086944,35.0413029 C96.9925855,34.4670891 95.907539,33.7115561 94.9535225,32.774681 C93.999506,31.8378059 93.2289658,30.6692481 92.6418787,29.2689725 C92.0547916,27.8686968 91.7612524,26.1410445 91.7612524,24.0859637 C91.7612524,22.43384 92.1072093,20.8220361 92.7991334,19.2505037 C93.4910574,17.6789713 94.5079609,16.2787167 95.8498742,15.0496978 C97.1917875,13.8206789 98.8377034,12.8384859 100.787671,12.1030893 C102.737639,11.3676928 104.970633,11 107.486721,11 C108.891536,11 110.259638,11.1057746 111.591068,11.3173271 C112.922498,11.5288795 114.185764,11.8411665 115.380906,12.2541974 C116.576047,12.6672284 117.692544,13.1608433 118.730431,13.7350571 C119.768317,14.3092708 120.69611,14.9590293 121.513838,15.6843519 L118.87196,20.4291471 Z M168.75,11.3214286 L168.75,55.6785714 L157.924528,55.6785714 L157.924528,36.9249681 L139.075472,36.9249681 L139.075472,55.6785714 L128.25,55.6785714 L128.25,11.3214286 L139.075472,11.3214286 L139.075472,29.8619227 L157.924528,29.8619227 L157.924528,11.3214286 L168.75,11.3214286 Z M202.178571,38.6428571 L197.937164,26.6728571 C197.622984,25.9128533 197.287864,25.0178623 196.931794,23.9878571 C196.575723,22.957852 196.219658,21.8428631 195.863588,20.6428571 C195.549408,21.8628632 195.214287,22.9928519 194.858217,24.0328571 C194.502146,25.0728623 194.167026,25.9728533 193.852846,26.7328571 L189.642857,38.6428571 L202.178571,38.6428571 Z M218.892857,55.6785714 L210.608548,55.6785714 C209.681038,55.6785714 208.932718,55.4705384 208.363564,55.0544661 C207.79441,54.6383938 207.362281,54.1056263 207.067164,53.4561477 L204.347887,45.7233307 L186.830684,45.7233307 L184.111407,53.4561477 C183.87953,54.0244415 183.463211,54.5369131 182.862437,54.9935778 C182.261664,55.4502425 181.518613,55.6785714 180.633262,55.6785714 L172.285714,55.6785714 L190.119112,11.3214286 L201.059459,11.3214286 L218.892857,55.6785714 Z M233.735758,29.2834837 L235.439527,29.2834837 C237.017098,29.2834837 238.152933,28.8065299 238.847064,27.8526081 L249.195881,13.3611874 C249.805875,12.5899314 250.463187,12.0571639 251.167835,11.7628689 C251.872484,11.4685739 252.750652,11.3214286 253.802366,11.3214286 L263.07844,11.3214286 L249.448291,29.2530395 C248.480714,30.4911083 247.439532,31.3841281 246.324715,31.9321257 C247.124018,32.2162726 247.84969,32.6120428 248.501753,33.119448 C249.153816,33.6268532 249.763801,34.2864701 250.331727,35.0983185 L264.214286,55.6785714 L254.685802,55.6785714 C254.075808,55.6785714 253.555217,55.6379796 253.124014,55.5567948 C252.692811,55.4756099 252.319458,55.3538345 252.003944,55.1914648 C251.68843,55.0290952 251.414988,54.8312101 251.183611,54.5978037 C250.952234,54.3643973 250.731377,54.0954766 250.521034,53.7910334 L240.109115,38.3558437 C239.730498,37.7875499 239.251975,37.3867057 238.673532,37.1532993 C238.095089,36.9198929 237.311574,36.8031915 236.322962,36.8031915 L233.735758,36.8031915 L233.735758,55.6785714 L223.071429,55.6785714 L223.071429,11.3214286 L233.735758,11.3214286 L233.735758,29.2834837 Z M277.942507,19.2369105 L277.942507,29.5879253 L292.53838,29.5879253 L292.53838,37.1989656 L277.942507,37.1989656 L277.942507,47.7630895 L297,47.7630895 L297,55.6785714 L267.107143,55.6785714 L267.107143,11.3214286 L297,11.3214286 L297,19.2369105 L277.942507,19.2369105 Z" id="SHAKE-Copy" fill="#212121"></path>
            </g>
        </g>
    </g>
</svg>